<svg xmlns="http://www.w3.org/2000/svg" width="35.772" height="52.895" viewBox="0 0 35.772 52.895">
  <g id="Group_9" data-name="Group 9" transform="translate(0.91 1.156)">
    <g id="Group_7" data-name="Group 7" transform="translate(0 0)">
      <path id="Path_3" data-name="Path 3" d="M23.688,20.277a6.562,6.562,0,0,1-3.876-4.287h0C17.36,13.963,10.949,9.826,7.676,9.1a7.914,7.914,0,0,0,1.767,6.465,6.685,6.685,0,0,0,4.89,2.849h.014a.094.094,0,0,1,.1.1c-.055,1.548,2.329,3.52,4.63,3.835a.092.092,0,0,1,.082.1,5.609,5.609,0,0,0,4.534,5.4Z" transform="translate(-7.435 -8.242)" fill="#fff"/>
      <path id="Path_4" data-name="Path 4" d="M128.492,102.163a.1.1,0,0,1-.027-.068v-1l-3.438-2.233a.083.083,0,0,1-.041-.082V91.288l-4.9-.288v11.232c0,.027-.014.041-.027.068L119,103.355V108.9l5.849,5.849h2.287v-6.725a.094.094,0,0,1,.1-.1h5.027l1-1Z" transform="translate(-103.638 -78.924)" fill="#fff"/>
      <rect id="Rectangle_5" data-name="Rectangle 5" width="7.575" height="11.04" transform="translate(17.458 39.731)" fill="#fff"/>
      <path id="Path_5" data-name="Path 5" d="M163.516,61.175a3.957,3.957,0,0,0,2.219-1.342,4.448,4.448,0,0,0,1.082-2.589.173.173,0,0,1,.014-.082.075.075,0,0,1,.068-.041,2.87,2.87,0,0,0,2.808-3.082.092.092,0,0,1,.082-.1,4.01,4.01,0,0,0,3.972-3.37c-.657-.014-4.013-.11-6.547,0a5.194,5.194,0,0,0-4.26,2.781c-.123.178-1.767,2.479-2.055,2.876l.329.014C161.284,56.257,163.516,61.175,163.516,61.175Z" transform="translate(-139.799 -43.989)" fill="#fff"/>
      <path id="Path_6" data-name="Path 6" d="M127.5,265.6h-13v3.643h13Z" transform="translate(-99.754 -229.609)" fill="#fff"/>
      <path id="Path_7" data-name="Path 7" d="M131.059,50.017a1.959,1.959,0,1,0-1.959-1.959A1.958,1.958,0,0,0,131.059,50.017Z" transform="translate(-112.354 -40.174)" fill="#fff"/>
      <g id="Group_3" data-name="Group 3" transform="translate(19.102 12.323)">
        <path id="Path_8" data-name="Path 8" d="M155.6,214.582v5.89l.849.849h2.287V214.6a.094.094,0,0,1,.1-.1H155.7A.092.092,0,0,0,155.6,214.582Z" transform="translate(-154.326 -197.83)" fill="#bfd0da"/>
        <path id="Path_9" data-name="Path 9" d="M152.053,103.717a.1.1,0,0,1-.027-.068v-1l-3.438-2.233a.083.083,0,0,1-.041-.082v-7.41L146.3,92.8v8.122c0,.027,2.6,1.712,2.6,1.712v1c0,.027.014.041.027.068l4.753,4.753-1,1h3.137l1-1Z" transform="translate(-146.3 -92.8)" fill="#bfd0da"/>
      </g>
      <rect id="Rectangle_6" data-name="Rectangle 6" width="3.137" height="11.04" transform="translate(21.909 39.731)" fill="#bfd0da"/>
      <rect id="Rectangle_7" data-name="Rectangle 7" width="3.137" height="3.643" transform="translate(24.608 35.992)" fill="#bfd0da"/>
      <path id="Path_10" data-name="Path 10" d="M137.272,46.2a1.957,1.957,0,0,0-.973.274,1.946,1.946,0,0,1,0,3.37,1.953,1.953,0,1,0,.973-3.643Z" transform="translate(-118.568 -40.26)" fill="#bfd0da"/>
      <g id="Group_6" data-name="Group 6" transform="translate(0 0)">
        <g id="Group_5" data-name="Group 5">
          <g id="Group_4" data-name="Group 4">
            <path id="Path_11" data-name="Path 11" d="M94.42,32.6s-.657,5.958,4.328,7.9l5.1.3,2.26,4.917h5.328" transform="translate(-82.4 -28.523)" fill="none" stroke="#00577b" stroke-linecap="round" stroke-linejoin="round" stroke-miterlimit="10" stroke-width="1.77"/>
            <path id="Path_12" data-name="Path 12" d="M165.55,109.552h5.068l1.082-1.082-4.821-4.821v-1.055l-3.479-2.26V92.8" transform="translate(-141.956 -80.477)" fill="none" stroke="#00577b" stroke-linecap="round" stroke-linejoin="round" stroke-miterlimit="10" stroke-width="1.77"/>
            <path id="Path_13" data-name="Path 13" d="M119.382,90.3v11.314L118.3,102.7v5.616l5.917,5.9h2.411v-6.821" transform="translate(-103.034 -78.32)" fill="none" stroke="#00577b" stroke-linecap="round" stroke-linejoin="round" stroke-miterlimit="10" stroke-width="1.77"/>
            <path id="Path_14" data-name="Path 14" d="M19.412,15.714c-2.63-2.192-9.191-6.657-12.4-7.314-1.068,4.328,3.041,9.52,6.753,9.492-.055,1.63,2.37,3.6,4.712,3.917a6.015,6.015,0,0,0,4.616,5.4" transform="translate(-6.844 -7.638)" fill="none" stroke="#00577b" stroke-linecap="round" stroke-linejoin="round" stroke-miterlimit="10" stroke-width="1.77"/>
            <ellipse id="Ellipse_1" data-name="Ellipse 1" cx="1.781" cy="1.781" rx="1.781" ry="1.781" transform="translate(9.377 1.363) rotate(-22.5)" fill="none" stroke="#00577b" stroke-linecap="round" stroke-linejoin="round" stroke-miterlimit="10" stroke-width="1.77"/>
            <path id="Path_15" data-name="Path 15" d="M177.6,123.2" transform="translate(-154.211 -106.713)" fill="none" stroke="#00577b" stroke-linecap="round" stroke-linejoin="round" stroke-miterlimit="10" stroke-width="1.77"/>
            <path id="Path_16" data-name="Path 16" d="M161,56.4s1.041-1.52,1.781-2.493c.808-1.068,1.74-3.027,4.493-3.15s6.588,0,6.588,0a4.094,4.094,0,0,1-4.082,3.356,3,3,0,0,1-2.835,3.205,4.48,4.48,0,0,1-3.328,4.013" transform="translate(-139.885 -44.144)" fill="none" stroke="#00577b" stroke-linecap="round" stroke-linejoin="round" stroke-miterlimit="10" stroke-width="1.77"/>
            <rect id="Rectangle_8" data-name="Rectangle 8" width="13.177" height="3.835" transform="translate(14.664 35.896)" stroke-width="1.77" stroke="#00577b" stroke-linecap="round" stroke-linejoin="round" stroke-miterlimit="10" fill="none"/>
            <path id="Path_17" data-name="Path 17" d="M141.366,292.9v11.122H133.6V292.9" transform="translate(-116.238 -253.169)" fill="none" stroke="#00577b" stroke-linecap="round" stroke-linejoin="round" stroke-miterlimit="10" stroke-width="1.77"/>
            <path id="Path_18" data-name="Path 18" d="M131.663,46.9a1.863,1.863,0,1,0,1.863,1.863A1.865,1.865,0,0,0,131.663,46.9Z" transform="translate(-112.959 -40.864)" fill="none" stroke="#00577b" stroke-linecap="round" stroke-linejoin="round" stroke-miterlimit="10" stroke-width="1.77"/>
          </g>
        </g>
      </g>
    </g>
  </g>
</svg>
