<?xml version="1.0" encoding="utf-8"?>
<!-- Generator: Adobe Illustrator 23.0.1, SVG Export Plug-In . SVG Version: 6.00 Build 0)  -->
<svg version="1.1" id="Layer_1" xmlns="http://www.w3.org/2000/svg" xmlns:xlink="http://www.w3.org/1999/xlink" x="0px" y="0px"
	 viewBox="0 0 227.5 197.7" style="enable-background:new 0 0 227.5 197.7;" xml:space="preserve">
<style type="text/css">
	.st0{fill:none;stroke:#005980;stroke-width:4.8465;stroke-miterlimit:10;}
	.st1{fill:#005980;}
	.st2{enable-background:new    ;}
	.st3{fill:#65ABD4;}
	.st4{fill:#095476;}
	.st5{fill:#89C1DD;}
	.st6{fill:#EA0029;}
	.st7{fill:#006F3C;}
	.st8{fill:#67ACD5;}
	.st9{fill:#007DB0;}
	.st10{fill:#307CA8;}
	.st11{fill:#E1251B;}
	.st12{fill:#DC2962;}
	.st13{fill:#AC1F5E;}
	.st14{fill:#FFDA00;}
</style>
<g transform="translate(0 2.253)">
	<g transform="translate(0 0)">
		<g>
			<path class="st0" d="M140.8,6.8"/>
		</g>
		<g>
			<path class="st1" d="M53.8,48.7L50,46.6c3.5-6.5,7.7-12.5,12.7-17.8c32.6-35.5,88-37.8,123.5-5.1l-3,3.2
				C149.5-4.2,96.9-2,65.9,31.7C61.2,36.8,57.1,42.5,53.8,48.7z"/>
		</g>
		<g>
			<path class="st1" d="M127,175.4c-16,0-31.8-4.4-45.6-12.8l2.3-3.7c17.1,10.5,37.5,14.4,57.2,11c19.8-3.4,37.7-13.8,50.4-29.3
				l3.4,2.8c-13.4,16.4-32.2,27.3-53,30.8C136.8,175,131.9,175.4,127,175.4z"/>
		</g>
		<g transform="translate(85.555 37.86)">
			<g class="st2">
				<path class="st3" d="M60.7,27.9l-1.2-3.8h-9.7c-0.3,1-0.9,2.6-1.2,3.8h2.6v3.7H41v-3.7h2.2l8.3-23.6h7l8,23.6h2.2v3.7H58.2v-3.7
					H60.7z M55.5,10.9c-0.2-0.7-0.4-1.4-0.6-2.1h-0.1l-0.6,2.1c-0.9,2.7-2.2,6.8-3.1,9.5h7.4L55.5,10.9z"/>
				<path class="st3" d="M71.2,31.6v-3.8H74V8.1h-2.7V4.3h13c9.6,0,12.2,6.3,12.2,13.6c0,7.4-3,13.8-12.4,13.8H71.2z M79.8,8.1v19.7
					h3.7c2.9,0,7-1.7,7-9.8c0-8.2-3.7-9.9-7-9.9H79.8z"/>
				<path class="st3" d="M121.1,23.4V8.1h-2.7V4.3h10.7v3.8h-2.6v23.5h-5.6c-3.5-5.5-7.2-10.9-10.7-16.5c-0.7-1.1-1.4-2.2-2.1-3.3
					c0,0,0,0-0.1,0v16h2.7v3.7H100v-3.7h2.7c0-6.6,0-13.2,0-19.8h-2.7V4.3h8.8c3.9,6.2,6.3,9.8,9.7,15.4c0.8,1.2,1.5,2.4,2.3,3.7
					H121.1z"/>
			</g>
			<g transform="translate(0 45.671)">
				<g>
					<path class="st1" d="M0.4,39.9v-5.3c0.1,0,0.3-0.1,0.4-0.1c0.9,0,2.2,0.3,2.8-0.3c0.7-0.4,0.7-1.7,1.1-2.6
						c3.5-10.2,6.9-20.2,10.3-30.3c0.3-0.9,0.7-1.2,1.7-1.2h7.8c0.9,0,1.2,0.3,1.5,1.1c3.6,10.6,7.2,21.1,10.7,31.7
						c0.4,1.2,0.9,1.8,2.2,1.7c0.6,0,1.2,0,1.8,0v5.3H26.7v-5.3h2.9c-0.7-1.8-1.2-3.5-1.8-5.1c-0.7-2.1-0.7-2.1-2.9-2.1H13.5
						c-0.8,2.3-1.5,4.8-2.3,7.1H14v5.4L0.4,39.9z M25.1,21.6C23.6,16.8,22,12,20.6,7.4h-0.3c-1.5,4.8-3.2,9.4-4.8,14.3H25.1z"/>
				</g>
				<g>
					<path class="st1" d="M137.9,34.5v5.4H128c-0.2-1.1-0.4-2.1-0.7-3.2c-1.4,1.9-3.4,3.2-5.7,3.6c-5,0.7-9.3-0.4-11-5.7
						c-0.6-2.1-0.6-4.4,0.1-6.5c1.1-3.4,3.7-4.9,7.1-5.1c3.1-0.3,6.3,0,9.6,0c0-1.5-0.1-3.1-0.4-4.6c-0.4-1.3-1.7-2.1-3.1-2
						c-3.4-0.1-6.8-0.1-10.2-0.1h-1.5v-4.8c2-0.3,4-0.7,6-0.8c3.2-0.4,6.4-0.4,9.6,0.1c4.3,0.8,6.5,3.6,6.5,7.9v15.9
						C135.6,34.6,136.8,34.5,137.9,34.5z M127.6,27.4c-2.3,0-4.6-0.1-6.8,0c-1.5,0-2.7,1.1-3.1,2.5c-0.4,1.5-0.3,3.1,1.1,4
						c2.8,2.1,7.8,0.7,8.5-2.9C127.6,30,127.4,28.7,127.6,27.4L127.6,27.4z"/>
				</g>
				<g>
					<path class="st1" d="M90.3,27.6c0.2,1.1,0.5,2.3,0.8,3.4c0.6,2.3,2.8,3.8,5.1,3.6h10.5v4.3c0,0.1-0.3,0.4-0.6,0.6
						c-4.9,0.9-9.7,1.7-14.6,0.4c-3.7-0.9-6.6-3.7-7.5-7.4c-1.3-4.3-1.3-8.8-0.1-13.1c1.4-5.3,5.3-8.3,10.8-9.1
						c2.9-0.3,5.8,0,8.5,0.9c4.8,2,6.5,6.3,5.1,11.3c-0.9,3.1-3.7,4.9-7.5,4.9h-8.9C91.5,27.6,90.9,27.6,90.3,27.6z M90.7,23
						c0.3,0,0.6,0.1,0.8,0.1c2.3,0,4.6,0,6.9-0.1c1.5,0,2.8-1,3.1-2.5c0.3-1.6-0.7-3.2-2.2-3.7C95.1,14.8,90.3,18.4,90.7,23L90.7,23
						z"/>
				</g>
				<g>
					<path class="st1" d="M56.8,39.4v-4.8h10.6c1.1,0,2.1-0.2,3.1-0.6c1.1-0.4,1.8-1.4,1.8-2.6c0-1.1-0.7-2.2-1.8-2.5
						c-1.5-0.6-3.1-0.7-4.6-1.2c-1.8-0.5-3.5-1-5.1-1.8c-2.8-1.5-3.7-4-3.7-7.1c-0.2-2.8,1.4-5.4,3.9-6.6c3.2-1.8,6.8-2,10.3-1.8
						c2.3,0.1,4.9,0.7,7.2,0.9v4.8h-1.4c-3.1,0-6.1,0-9.2,0.1c-2.1,0.1-3.2,1.1-3.4,2.5c-0.1,1.4,0.8,2.5,2.8,3.2
						c1.4,0.4,2.8,0.6,4,0.9c1,0.3,2.1,0.6,3.1,0.9c4,1.5,5.6,4.2,5.4,8.5c-0.1,3.5-2.5,6.3-6.1,7.4c-3.1,0.8-6.3,1-9.4,0.6
						C61.7,40.2,59.2,39.9,56.8,39.4z"/>
				</g>
				<g>
					<path class="st1" d="M43.4,39.9V5.9h-3.2V0.3h10.2v34.4h3.1v5.3H43.4z"/>
				</g>
			</g>
		</g>
		<g transform="translate(0 14.257)">
			<g>
				<path class="st4" d="M58.3,144.7c-0.5-0.7,0.4-1.8-0.5-2.4c-0.1-0.1,0.3-0.5,0.6-0.6c2.1-0.3,4.3,0.2,6.5,0.3
					c1.7,0.1,3.5,0.3,5.1,0.4c0.5,0,1,0.2,1.4-0.3c0.1,0.2,0,0.5,0.3,0.5c0.9-0.1,1,0.4,0.9,1c-0.1,0.7,0.3,1.6-0.4,2
					c-0.5,0.3-1.3,0.1-2,0.1C66.3,145.4,62.3,145.3,58.3,144.7z"/>
			</g>
			<g>
				<path class="st5" d="M75,170.5c-1.9,0.9-2.7,3.1-1.9,5c0.9,1.9,3.1,2.7,5,1.8s2.7-3.1,1.8-5C79,170.5,76.8,169.7,75,170.5z"/>
			</g>
			<g>
				<path class="st4" d="M76.2,156.5c-0.6,0.9-1.4,1.7-2.2,2.4c-0.4,0.4-0.9-0.2-1.1-0.7C73.6,156.8,74.9,156.8,76.2,156.5z"/>
			</g>
			<g>
				<path class="st4" d="M68.5,132.3c0.7,0,1.3-0.7,2-0.1C69.9,132.6,69.2,132.6,68.5,132.3z"/>
			</g>
			<g>
				<path class="st4" d="M72.1,131c0.2-0.1,0.4-0.2,0.7-0.2c-0.2,0.7-0.8,0.8-1.4,1C71.2,131.2,71.8,131.2,72.1,131z"/>
			</g>
			<g>
				<path class="st4" d="M35.7,121.3c0,0.3-0.3,0.4-0.5,0.5C35.2,121.5,35.3,121.3,35.7,121.3z"/>
			</g>
			<g>
				<path class="st4" d="M48.5,111.8c0.2-0.1,0.5-0.2,0.7,0.1C48.8,112.2,48.7,112,48.5,111.8z"/>
			</g>
			<g>
				<path class="st4" d="M57.4,144.5c0.3-0.3,0.4,0,0.6,0.1C57.8,144.7,57.6,144.7,57.4,144.5z"/>
			</g>
			<g>
				<path class="st4" d="M73.4,164.7c-0.1,0-0.2-0.1-0.3-0.1C73.2,164.6,73.3,164.7,73.4,164.7z"/>
			</g>
			<g>
				<path class="st6" d="M48,4.6c-2,0.9-3,3.3-2.1,5.3c0.9,2,3.3,3,5.3,2.1c2-0.9,3-3.3,2.1-5.3C52.4,4.7,50,3.8,48,4.6z"/>
			</g>
			<g>
				<path class="st6" d="M50.4,18.3c-0.8,0.3-1.4,0.9-1.7,1.7L40.9,19c-1.3-0.2-2.7-0.4-4-0.6c-0.2,0-0.4-0.1-0.6-0.2
					c0-0.3-0.1-0.7-0.3-0.9c-0.7-1.6-2.6-2.4-4.2-1.7c-1.6,0.7-2.4,2.6-1.7,4.2c0.7,1.6,2.6,2.4,4.2,1.7c0.7-0.3,1.2-0.8,1.5-1.4
					l6.3,0.7c2,0.3,3.8,0.6,5.8,0.7c0.3,0,0.5,0.2,0.7,0.4c0,0.1,0.1,0.3,0.1,0.4c0.2,0.6,0.7,1.1,1.2,1.4c0.8,0.6,1.9,0.7,2.8,0.3
					h0.1c1.6-0.7,2.4-2.6,1.7-4.2c-0.6-1.5-2.3-2.3-3.9-1.7C50.6,18.2,50.5,18.2,50.4,18.3z"/>
			</g>
			<g transform="translate(8.899 77.903)">
				<g>
					<path class="st7" d="M38.6,12.6"/>
				</g>
				<g>
					<path class="st7" d="M32,3.2c-0.9,0.4-1.6,1-2.1,1.8c-0.4,0.2-0.8,0.3-1.2,0.3c-2.7-0.3-5.4-0.6-8.1-0.7l-7.8-0.8
						c-0.1-0.1-0.2-0.2-0.2-0.3c0-0.1,0-0.1-0.1-0.2V3.1c-0.1-0.7-0.5-1.3-1.1-1.7c-1.4-1.5-3.7-2-5.6-1.1C3.2,1.4,2,4.5,3.1,7
						c1.1,2.6,4.1,3.7,6.7,2.6c1.5-0.7,2.7-2.1,3-3.7l16.2,1.9c0,0.8,0.1,1.5,0.4,2.2c1.1,2.6,4.1,3.7,6.7,2.6
						c2.6-1.1,3.7-4.1,2.6-6.7l0,0C37.7,3.3,34.6,2.1,32,3.2z"/>
				</g>
			</g>
			<g>
				<path class="st8" d="M67.5,123.5c-1.2,0.5-2.2,1.5-2.7,2.7l-21.5-1.7c-0.1-0.4-0.2-0.7-0.4-1c-1.2-2.7-4.3-4-7-2.8
					c-2.7,1.2-4,4.3-2.8,7c1.2,2.7,4.3,4,7,2.8c1.3-0.6,2.4-1.7,2.9-3.1h0.1c2.3,0.2,4.7,0.5,7.1,0.6c1.6,0.1,3.1,0.3,4.7,0.4
					l1.5,0.1c0.2,0,0.3,0.1,0.5,0.1c2.5,0.2,4.9,0.4,7.5,0.6c0.1,0.5,0.2,1,0.4,1.5c1.2,2.7,4.3,4,7,2.8s4-4.3,2.8-7l0,0
					c-1-2.7-4-4-6.7-3C67.7,123.4,67.6,123.5,67.5,123.5z"/>
			</g>
			<g>
				<path class="st9" d="M62.8,109.3c-1.1,0.4-1.9,1.3-2.3,2.3l-12.3-0.9l-4.4-0.4c-0.1-0.2-0.1-0.4-0.2-0.6l-0.3-0.6
					c-0.2-0.5-0.6-0.8-1-1.1c-2-1.6-4.9-1.3-6.5,0.6c-1.6,2-1.3,4.9,0.6,6.5c1.3,1.1,3.2,1.4,4.8,0.7c1.2-0.5,2.2-1.6,2.5-2.9
					l16.3,1.3l0.3,1.1c1,2.3,3.7,3.4,6.1,2.4c2.3-1,3.4-3.7,2.4-6.1c-0.8-2.3-3.4-3.5-5.7-2.6C62.9,109.2,62.8,109.3,62.8,109.3z"/>
			</g>
			<g>
				<path class="st8" d="M72.1,156c-1.3,0.5-2.2,1.6-2.6,2.9l-16.2-1.3l-0.3-0.3c-0.1-0.2-0.1-0.4-0.2-0.6c-1.1-2.4-3.9-3.6-6.4-2.5
					c-2.4,1.1-3.6,3.9-2.5,6.4c1.1,2.4,3.9,3.6,6.4,2.5c0,0,0,0,0,0c1.3-0.5,2.2-1.6,2.6-2.9H53l14.9,1.2h0.3l0.8,0.1
					c0.2,0.1,0.3,0.2,0.4,0.4c0.1,0.2,0.1,0.5,0.2,0.7c1.1,2.5,3.9,3.6,6.4,2.6c2.5-1.1,3.6-3.9,2.6-6.4c0,0,0,0,0-0.1
					c-1-2.5-3.7-3.7-6.2-2.7C72.2,155.9,72.2,156,72.1,156z"/>
			</g>
			<g transform="translate(26.879 136.233)">
				<g>
					<path class="st10" d="M54.5-0.2C54.4-0.2,54.4-0.2,54.5-0.2C54.4-0.3,54.4-0.3,54.5-0.2L54.5-0.2c-0.2-0.1-0.3-0.2-0.5-0.2l0,0
						C54.1-0.4,54.2-0.3,54.5-0.2L54.5-0.2C54.4-0.3,54.5-0.3,54.5-0.2C54.5-0.2,54.5-0.2,54.5-0.2z"/>
				</g>
				<g>
					<path class="st10" d="M52.3,0.8L52.3,0.8L52.3,0.8L52.3,0.8z"/>
				</g>
				<g>
					<path class="st10" d="M57.2,10.7"/>
				</g>
				<g>
					<path class="st10" d="M47.4,2.2c-1.7,0.8-3.1,2.2-3.7,3.9L29.9,5c-0.3,0-0.5,0-0.7-0.1L16.3,4c-0.2,0-0.3,0-0.5-0.1
						c-0.1-0.6-0.3-1.1-0.5-1.7c-1.5-3.5-5.6-5.1-9.1-3.6S1.2,4.2,2.7,7.7s5.6,5.1,9.1,3.6c0,0,0,0,0,0c1.6-0.7,2.9-2.1,3.6-3.7
						l28,2.1c0.1,0.5,0.3,1,0.5,1.5c1.5,3.5,5.6,5.1,9.1,3.6c3.5-1.5,5.1-5.6,3.6-9.1C54.9,2.3,50.8,0.7,47.4,2.2z"/>
				</g>
			</g>
			<g>
				<path class="st11" d="M48,31.9c-0.9,0.4-1.7,1-2.2,1.9l-20.1-3.1c-0.1-0.4-0.2-0.8-0.4-1.2c-1.1-2.6-4.1-3.8-6.7-2.6
					C16,28,14.8,31,16,33.6c1.1,2.6,4.1,3.7,6.7,2.6c0.9-0.4,1.7-1,2.2-1.9l20.1,3c0.1,0.4,0.2,0.9,0.4,1.3c1.1,2.6,4.1,3.7,6.7,2.6
					c2.6-1.1,3.7-4.1,2.6-6.7l0,0C53.6,32,50.6,30.8,48,31.9z"/>
			</g>
			<g>
				<path class="st12" d="M55.8,48.5c-2-1.6-4.7-1.9-7.1-0.9c-1.5,0.6-2.7,1.7-3.4,3.2c-0.5-0.1-0.8-0.2-1.3-0.3
					c-3.6-0.5-7.3-0.9-10.9-1.5l0,0c-0.7-0.1-1.3-0.2-2.1-0.3l-13-2c-0.1-0.7-0.3-1.3-0.6-2c-1.5-3.5-5.5-5.1-9-3.6
					c-0.1,0-0.1,0.1-0.2,0.1c-3.5,1.5-5.2,5.5-3.7,9.1c1.5,3.5,5.5,5.2,9.1,3.7c0.1,0,0.2-0.1,0.3-0.1c1.6-0.7,2.9-2,3.6-3.6
					l26.9,4.1c0.1,0.8,0.2,1.6,0.6,2.3c1.5,3.5,5.5,5.1,9,3.6c0.1,0,0.1-0.1,0.2-0.1c3.2-1.4,4.8-4.9,3.9-8.2
					C58,50.6,57.1,49.3,55.8,48.5z"/>
			</g>
			<g>
				<path class="st13" d="M51.4,68.5c-0.6-1.2-1.6-2.1-2.9-2.4c-2.7-1-5.8,0-7.4,2.4c-0.2,0.1-0.4,0.1-0.6,0.1
					c-1.2-0.2-2.3-0.4-3.5-0.6c-2.9-0.4-5.7-0.8-8.6-1.2L16.9,65c-0.1-0.5-0.2-0.9-0.4-1.4c-1.3-3.3-4.9-4.9-8.2-3.7
					c-3.3,1.2-5,4.9-3.7,8.2c1.2,3.3,4.9,5,8.2,3.7l0,0c1.5-0.5,2.7-1.6,3.4-3l24,3.9c0.1,0.4,0.2,0.7,0.3,1.2
					c1.1,3.1,4.6,4.8,7.7,3.7c3.1-1.1,4.8-4.6,3.7-7.7c0-0.1,0-0.1-0.1-0.2C51.7,69.3,51.6,68.9,51.4,68.5z"/>
			</g>
			<g>
				<path class="st4" d="M58.3,144.7c-0.5-0.7,0.4-1.8-0.5-2.4c-0.1-0.1,0.3-0.5,0.6-0.6c2.1-0.3,4.3,0.2,6.5,0.3
					c1.7,0.1,3.5,0.3,5.1,0.4c0.5,0,1,0.2,1.4-0.3c0.1,0.2,0,0.5,0.3,0.5c0.9-0.1,1,0.4,0.9,1c-0.1,0.7,0.3,1.6-0.4,2
					c-0.5,0.3-1.3,0.1-2,0.1C66.3,145.4,62.3,145.3,58.3,144.7z"/>
			</g>
			<g>
				<path class="st5" d="M73.4,169.1c-1.9,0.9-2.7,3.1-1.9,5c0.8,1.9,2.9,2.9,4.9,2.1c1.9-0.8,2.9-2.9,2.1-4.9c0,0,0-0.1-0.1-0.1
					c-0.8-2-3-2.9-4.9-2.2C73.5,169,73.4,169.1,73.4,169.1z"/>
			</g>
			<g>
				<path class="st4" d="M76.2,156.5c-0.6,0.9-1.4,1.7-2.2,2.4c-0.4,0.4-0.9-0.2-1.1-0.7C73.6,156.8,74.9,156.8,76.2,156.5z"/>
			</g>
			<g>
				<path class="st4" d="M68.5,132.3c0.7,0,1.3-0.7,2-0.1C69.9,132.6,69.2,132.6,68.5,132.3z"/>
			</g>
			<g>
				<path class="st4" d="M72.1,131c0.2-0.1,0.4-0.2,0.7-0.2c-0.2,0.7-0.8,0.8-1.4,1C71.2,131.2,71.8,131.2,72.1,131z"/>
			</g>
			<g>
				<path class="st4" d="M35.7,121.3c0,0.3-0.3,0.4-0.5,0.5C35.2,121.5,35.3,121.3,35.7,121.3z"/>
			</g>
			<g>
				<path class="st4" d="M48.5,111.8c0.2-0.1,0.5-0.2,0.7,0.1C48.8,112.2,48.7,112,48.5,111.8z"/>
			</g>
			<g>
				<path class="st4" d="M57.4,144.5c0.3-0.3,0.4,0,0.6,0.1C57.8,144.7,57.6,144.7,57.4,144.5z"/>
			</g>
			<g>
				<path class="st4" d="M73.4,164.7c-0.1,0-0.2-0.1-0.3-0.1C73.2,164.6,73.3,164.7,73.4,164.7z"/>
			</g>
			<g>
				<path class="st14" d="M48.3,2.8c-2.7,1.2-4,4.4-2.8,7.1c1.2,2.7,4.4,4,7.1,2.8c2.7-1.2,4-4.4,2.8-7.1c-1.1-2.7-4.3-4-7-2.9
					C48.4,2.7,48.3,2.7,48.3,2.8z"/>
			</g>
			<g>
				<path class="st6" d="M50.4,18.3c-0.8,0.3-1.4,0.9-1.7,1.7L40.9,19c-1.3-0.2-2.7-0.4-4-0.6c-0.2,0-0.4-0.1-0.6-0.2
					c0-0.3-0.1-0.7-0.3-0.9c-0.7-1.6-2.6-2.4-4.2-1.7c-1.6,0.7-2.4,2.6-1.7,4.2c0.7,1.6,2.6,2.4,4.2,1.7c0.7-0.3,1.2-0.8,1.5-1.4
					l6.3,0.7c2,0.3,3.8,0.6,5.8,0.7c0.3,0,0.5,0.2,0.7,0.4c0,0.1,0.1,0.3,0.1,0.4c0.2,0.6,0.7,1.1,1.2,1.4c0.8,0.6,1.9,0.7,2.8,0.3
					h0.1c1.6-0.7,2.4-2.6,1.7-4.2c-0.6-1.5-2.3-2.3-3.9-1.7C50.6,18.2,50.5,18.2,50.4,18.3z"/>
			</g>
			<g>
				<path class="st5" d="M47.5,90.5"/>
			</g>
			<g>
				<path class="st7" d="M40.9,81.1c-0.9,0.4-1.6,1-2.1,1.8c-0.4,0.2-0.8,0.3-1.2,0.3c-2.7-0.3-5.4-0.6-8.1-0.7l-7.8-0.8
					c-0.1-0.1-0.2-0.2-0.2-0.3c0-0.1,0-0.1-0.1-0.2V81c-0.1-0.7-0.5-1.3-1.1-1.7c-1.4-1.5-3.7-2-5.6-1.1c-2.6,1.1-3.7,4.1-2.6,6.7
					s4.1,3.7,6.7,2.6c1.5-0.7,2.7-2.1,3-3.7L38,85.7c0,0.8,0.1,1.5,0.4,2.2c1.1,2.6,4.1,3.7,6.7,2.6c2.6-1.1,3.7-4.1,2.6-6.7l0,0
					C46.5,81.2,43.5,80,40.9,81.1z"/>
			</g>
			<g>
				<path class="st8" d="M67.5,123.5c-1.2,0.5-2.2,1.5-2.7,2.7l-21.5-1.7c-0.1-0.4-0.2-0.7-0.4-1c-1.2-2.7-4.3-4-7-2.8
					c-2.7,1.2-4,4.3-2.8,7c1.2,2.7,4.3,4,7,2.8c1.3-0.6,2.4-1.7,2.9-3.1h0.1c2.3,0.2,4.7,0.5,7.1,0.6c1.6,0.1,3.1,0.3,4.7,0.4
					l1.5,0.1c0.2,0,0.3,0.1,0.5,0.1c2.5,0.2,4.9,0.4,7.5,0.6c0.1,0.5,0.2,1,0.4,1.5c1.2,2.7,4.3,4,7,2.8s4-4.3,2.8-7l0,0
					c-1-2.7-4-4-6.7-3C67.7,123.4,67.6,123.5,67.5,123.5z"/>
			</g>
			<g>
				<path class="st9" d="M62.8,109.3c-1.1,0.4-1.9,1.3-2.3,2.3l-12.3-0.9l-4.4-0.4c-0.1-0.2-0.1-0.4-0.2-0.6l-0.3-0.6
					c-0.2-0.5-0.6-0.8-1-1.1c-2-1.6-4.9-1.3-6.5,0.6c-1.6,2-1.3,4.9,0.6,6.5c1.3,1.1,3.2,1.4,4.8,0.7c1.2-0.5,2.2-1.6,2.5-2.9
					l16.3,1.3l0.3,1.1c1,2.3,3.7,3.4,6.1,2.4c2.3-1,3.4-3.7,2.4-6.1c-0.8-2.3-3.4-3.5-5.7-2.6C62.9,109.2,62.8,109.3,62.8,109.3z"/>
			</g>
			<g>
				<path class="st8" d="M72.1,156c-1.3,0.5-2.2,1.6-2.6,2.9l-16.2-1.3l-0.3-0.3c-0.1-0.2-0.1-0.4-0.2-0.6c-1.1-2.4-3.9-3.6-6.4-2.5
					c-2.4,1.1-3.6,3.9-2.5,6.4c1.1,2.4,3.9,3.6,6.4,2.5c0,0,0,0,0,0c1.3-0.5,2.2-1.6,2.6-2.9H53l14.9,1.2h0.3l0.8,0.1
					c0.2,0.1,0.3,0.2,0.4,0.4c0.1,0.2,0.1,0.5,0.2,0.7c1.1,2.5,3.9,3.6,6.4,2.6c2.5-1.1,3.6-3.9,2.6-6.4c0,0,0,0,0-0.1
					c-1-2.5-3.7-3.7-6.2-2.7C72.2,155.9,72.2,156,72.1,156z"/>
			</g>
			<g transform="translate(26.879 136.233)">
				<g>
					<path class="st10" d="M54.5-0.2C54.4-0.2,54.4-0.2,54.5-0.2C54.4-0.3,54.4-0.3,54.5-0.2L54.5-0.2c-0.2-0.1-0.3-0.2-0.5-0.2l0,0
						C54.1-0.4,54.2-0.3,54.5-0.2L54.5-0.2C54.4-0.3,54.5-0.3,54.5-0.2C54.5-0.2,54.5-0.2,54.5-0.2z"/>
				</g>
				<g>
					<path class="st10" d="M52.3,0.8L52.3,0.8L52.3,0.8L52.3,0.8z"/>
				</g>
				<g>
					<path class="st10" d="M57.2,10.7"/>
				</g>
				<g>
					<path class="st10" d="M47.4,2.2c-1.7,0.8-3.1,2.2-3.7,3.9L29.9,5c-0.3,0-0.5,0-0.7-0.1L16.3,4c-0.2,0-0.3,0-0.5-0.1
						c-0.1-0.6-0.3-1.1-0.5-1.7c-1.5-3.5-5.6-5.1-9.1-3.6S1.2,4.2,2.7,7.7s5.6,5.1,9.1,3.6c0,0,0,0,0,0c1.6-0.7,2.9-2.1,3.6-3.7
						l28,2.1c0.1,0.5,0.3,1,0.5,1.5c1.5,3.5,5.6,5.1,9.1,3.6c3.5-1.5,5.1-5.6,3.6-9.1C54.9,2.3,50.8,0.7,47.4,2.2z"/>
				</g>
			</g>
			<g>
				<path class="st11" d="M48,31.9c-0.9,0.4-1.7,1-2.2,1.9l-20.1-3.1c-0.1-0.4-0.2-0.8-0.4-1.2c-1.1-2.6-4.1-3.8-6.7-2.6
					C16,28,14.8,31,16,33.6c1.1,2.6,4.1,3.7,6.7,2.6c0.9-0.4,1.7-1,2.2-1.9l20.1,3c0.1,0.4,0.2,0.9,0.4,1.3c1.1,2.6,4.1,3.7,6.7,2.6
					c2.6-1.1,3.7-4.1,2.6-6.7l0,0C53.6,32,50.6,30.8,48,31.9z"/>
			</g>
			<g>
				<path class="st12" d="M56.2,49.4c-2-1.6-4.7-1.9-7.1-0.9c-1.5,0.6-2.7,1.7-3.4,3.2c-0.5-0.1-0.8-0.2-1.3-0.3
					c-3.6-0.5-7.3-0.9-10.9-1.5l0,0c-0.7-0.1-1.3-0.2-2.1-0.3l-13-2c-0.1-0.7-0.3-1.3-0.6-2c-1.5-3.5-5.5-5.1-9-3.6
					c-0.1,0-0.1,0.1-0.2,0.1c-3.5,1.5-5.2,5.5-3.7,9.1c1.5,3.5,5.5,5.2,9.1,3.7c0.1,0,0.2-0.1,0.3-0.1c1.6-0.7,2.9-2,3.6-3.6l27,4.1
					c0.1,0.8,0.2,1.6,0.6,2.3c1.5,3.5,5.5,5.1,9,3.6c0.1,0,0.1-0.1,0.2-0.1c3.2-1.4,4.8-4.9,3.9-8.2C58.3,51.5,57.4,50.2,56.2,49.4z
					"/>
			</g>
			<g>
				<path class="st13" d="M51.4,68.5c-0.6-1.2-1.6-2.1-2.9-2.4c-2.7-1-5.8,0-7.4,2.4c-0.2,0.1-0.4,0.1-0.6,0.1
					c-1.2-0.2-2.3-0.4-3.5-0.6c-2.9-0.4-5.7-0.8-8.6-1.2L16.9,65c-0.1-0.5-0.2-0.9-0.4-1.4c-1.3-3.3-4.9-4.9-8.2-3.7
					c-3.3,1.2-5,4.9-3.7,8.2c1.2,3.3,4.9,5,8.2,3.7l0,0c1.5-0.5,2.7-1.6,3.4-3l24,3.9c0.1,0.4,0.2,0.7,0.3,1.2
					c1.1,3.1,4.6,4.8,7.7,3.7c3.1-1.1,4.8-4.6,3.7-7.7c0-0.1,0-0.1-0.1-0.2C51.7,69.3,51.6,68.9,51.4,68.5z"/>
			</g>
			<g>
				<ellipse class="st6" cx="34.2" cy="19.3" rx="4.5" ry="4.5"/>
			</g>
			<g>
				<ellipse class="st11" cx="19.9" cy="31.2" rx="5.9" ry="5.9"/>
			</g>
			<g>
				<ellipse class="st11" cx="50" cy="37.1" rx="5.9" ry="5.9"/>
			</g>
			<g>
				<ellipse class="st12" cx="11.3" cy="47.5" rx="8.3" ry="8.3"/>
			</g>
			<g>
				<ellipse class="st12" cx="52.3" cy="55.2" rx="8.3" ry="8.3"/>
			</g>
			<g>
				<ellipse class="st13" cx="10.5" cy="66.3" rx="7.5" ry="7.5"/>
			</g>
			<g>
				<ellipse class="st13" cx="46.1" cy="71.9" rx="6.6" ry="6.6"/>
			</g>
			<g>
				<ellipse class="st7" cx="15.9" cy="82.3" rx="5.8" ry="5.8"/>
			</g>
			<g>
				<ellipse class="st7" cx="43" cy="85.8" rx="5.3" ry="5.3"/>
			</g>
			<g transform="translate(31.12 92.976)">
				<g>
					<path class="st9" d="M12.2,3.7c0-0.1-0.1-0.3-0.1-0.4C11.1,1,8.4-0.1,6,0.9S2.6,4.7,3.6,7c1,2.3,3.7,3.4,6.1,2.4c0,0,0,0,0,0
						C11.9,8.5,13,6,12.2,3.7z"/>
				</g>
				<g>
					<path class="st9" d="M12.2,3.7c0-0.1-0.1-0.3-0.1-0.4C11.1,1,8.4-0.1,6,0.9S2.6,4.7,3.6,7c1,2.3,3.7,3.4,6.1,2.4c0,0,0,0,0,0
						C11.9,8.5,13,6,12.2,3.7z"/>
				</g>
				<g>
					<ellipse class="st9" cx="7.8" cy="5.2" rx="5.8" ry="5.8"/>
				</g>
			</g>
			<g>
				<ellipse class="st6" cx="50.3" cy="20.7" rx="4.5" ry="4.5"/>
			</g>
		</g>
	</g>
</g>
</svg>
