<svg id="Group_1201" data-name="Group 1201" xmlns="http://www.w3.org/2000/svg" xmlns:xlink="http://www.w3.org/1999/xlink" width="24.05" height="36.436" viewBox="0 0 24.05 36.436">
  <defs>
    <clipPath id="clip-path">
      <rect id="Rectangle_512" data-name="Rectangle 512" width="24.05" height="36.436"/>
    </clipPath>
  </defs>
  <g id="Group_1200" data-name="Group 1200">
    <g id="Group_1199" data-name="Group 1199" clip-path="url(#clip-path)">
      <path id="Path_1471" data-name="Path 1471" d="M23.982,7.125v-.02c0-.029-.01-.059-.01-.088h0l-.029-.088c0-.01-.01-.01-.01-.02a.2.2,0,0,0-.039-.078h0a.342.342,0,0,0-.049-.078c0-.01-.01-.01-.01-.02a.424.424,0,0,0-.059-.068L17.335.224c-.02-.02-.049-.039-.068-.059-.01,0-.01-.01-.02-.01a.342.342,0,0,0-.078-.049h-.01C17.13.1,17.11.078,17.081.068a.034.034,0,0,1-.02-.01L16.974.029h0A.157.157,0,0,0,16.886,0H.713A.717.717,0,0,0,0,.713V31.165a.717.717,0,0,0,.713.713H11.43v3.846a.7.7,0,0,0,.371.625.709.709,0,0,0,.722-.02l2.713-1.7,2.713,1.7a.747.747,0,0,0,.381.107.714.714,0,0,0,.713-.713V31.878h4.246A.717.717,0,0,0,24,31.165V7.154c-.02-.01-.02-.02-.02-.029ZM17.549,2.43l4,4.012H17.54V2.43Zm-6.471,19.55a3.15,3.15,0,0,1-.137-.449,1.737,1.737,0,0,1,.371-.264,2.617,2.617,0,0,0,.752-.625,2.484,2.484,0,0,0,.371-.908,1.831,1.831,0,0,1,.137-.41.7.7,0,0,1,.176-.01,2.561,2.561,0,0,1,.264.01c.107.01.215.01.332.01A2.21,2.21,0,0,0,14,19.248a2.651,2.651,0,0,0,.82-.508,1.572,1.572,0,0,1,.42-.283,1.851,1.851,0,0,1,.42.283,2.771,2.771,0,0,0,.82.508,2.12,2.12,0,0,0,.654.088c.117,0,.224-.01.332-.01s.185-.01.264-.01c.1,0,.146.01.176.01a2.511,2.511,0,0,1,.137.41,2.666,2.666,0,0,0,.371.908,2.494,2.494,0,0,0,.752.625,2.642,2.642,0,0,1,.371.264,2.245,2.245,0,0,1-.137.449,2.807,2.807,0,0,0-.224.976,2.756,2.756,0,0,0,.224.976,3.15,3.15,0,0,1,.137.449,1.737,1.737,0,0,1-.371.264,2.617,2.617,0,0,0-.752.625,2.484,2.484,0,0,0-.371.908,1.831,1.831,0,0,1-.137.41.7.7,0,0,1-.176.01,2.56,2.56,0,0,1-.264-.01c-.107-.01-.215-.01-.332-.01a2.209,2.209,0,0,0-.654.088,2.651,2.651,0,0,0-.82.508,1.66,1.66,0,0,1-.42.283,1.974,1.974,0,0,1-.42-.283,2.771,2.771,0,0,0-.82-.508,2.12,2.12,0,0,0-.654-.088c-.117,0-.224.01-.332.01s-.185.01-.264.01c-.1,0-.146-.01-.176-.01a2.511,2.511,0,0,1-.137-.41,2.666,2.666,0,0,0-.371-.908,2.493,2.493,0,0,0-.752-.625,2.643,2.643,0,0,1-.371-.264,2.245,2.245,0,0,1,.137-.449,2.807,2.807,0,0,0,.224-.976,2.985,2.985,0,0,0-.224-.976ZM17.6,34.435l-1.991-1.249a.715.715,0,0,0-.761,0l-2,1.249v-6.4c.078,0,.146-.01.224-.01a2.561,2.561,0,0,1,.264-.01.658.658,0,0,1,.2.02,1.932,1.932,0,0,1,.381.264,2.1,2.1,0,0,0,1.308.6,2.1,2.1,0,0,0,1.308-.6,1.684,1.684,0,0,1,.381-.264.609.609,0,0,1,.2-.02,2.561,2.561,0,0,1,.264.01c.068,0,.146.01.224.01l-.01,6.4Zm1.425-3.982v-3a2.365,2.365,0,0,0,.371-.917,1.8,1.8,0,0,1,.146-.429,1.731,1.731,0,0,1,.361-.264,1.99,1.99,0,0,0,.957-1.015,2.055,2.055,0,0,0-.146-1.386,1.788,1.788,0,0,1-.137-.488,2.229,2.229,0,0,1,.137-.488,2.005,2.005,0,0,0,.146-1.386,1.991,1.991,0,0,0-.957-1.015,1.822,1.822,0,0,1-.361-.264,1.8,1.8,0,0,1-.146-.429,1.99,1.99,0,0,0-.664-1.21,1.709,1.709,0,0,0-1.025-.283c-.117,0-.224.01-.332.01s-.185.01-.264.01a.658.658,0,0,1-.2-.02,1.932,1.932,0,0,1-.381-.264,2.1,2.1,0,0,0-1.308-.6,2.1,2.1,0,0,0-1.308.6,1.684,1.684,0,0,1-.381.264.61.61,0,0,1-.2.02,2.56,2.56,0,0,1-.264-.01c-.107-.01-.215-.01-.332-.01a1.709,1.709,0,0,0-1.025.283,1.943,1.943,0,0,0-.664,1.21,2.5,2.5,0,0,1-.137.429,1.731,1.731,0,0,1-.361.264,1.99,1.99,0,0,0-.957,1.015,2.055,2.055,0,0,0,.146,1.386,1.788,1.788,0,0,1,.137.488,2.229,2.229,0,0,1-.137.488,2.005,2.005,0,0,0-.146,1.386,1.991,1.991,0,0,0,.957,1.015,1.821,1.821,0,0,1,.361.264,1.857,1.857,0,0,1,.137.429,2.712,2.712,0,0,0,.371.917v3H1.425V1.425h14.7V7.154a.717.717,0,0,0,.713.713h5.729V30.453Zm0,0" transform="translate(0)" fill-rule="evenodd"/>
    </g>
  </g>
  <path id="Path_1472" data-name="Path 1472" d="M36.313,67.425h9.165a.713.713,0,0,0,0-1.425H36.313a.713.713,0,0,0,0,1.425Zm0,0" transform="translate(-32.125 -59.558)" fill-rule="evenodd"/>
  <path id="Path_1473" data-name="Path 1473" d="M52,102.8H36.313a.713.713,0,0,0,0,1.425H52a.717.717,0,0,0,.713-.713A.7.7,0,0,0,52,102.8Zm0,0" transform="translate(-32.125 -92.766)" fill-rule="evenodd"/>
  <path id="Path_1474" data-name="Path 1474" d="M49.157,139.6H36.313a.713.713,0,0,0,0,1.425H49.157a.713.713,0,0,0,0-1.425Zm0,0" transform="translate(-32.125 -125.974)" fill-rule="evenodd"/>
  <path id="Path_1475" data-name="Path 1475" d="M197.013,139.6a.713.713,0,1,0,.712.713.716.716,0,0,0-.712-.713Zm0,0" transform="translate(-177.14 -125.974)" fill-rule="evenodd"/>
</svg>
